Geography 176A
…
Getting some data …

(covid = readr::read_csv('https://raw.githubusercontent.com/nytimes/covid-19-data/master/live/us-states.csv') %>% 
  filter(date == max(date)) %>% 
  right_join(USAboundaries::us_states(), by = c("state" = "name")) %>% 
  filter(!stusps %in% c("AK","PR", "HI")) %>% 
  st_as_sf())

#> Simple feature collection with 49 features and 20 fields
#> geometry type:  MULTIPOLYGON
#> dimension:      XY
#> bbox:           xmin: -124.7258 ymin: 24.49813 xmax: -66.9499 ymax: 49.38436
#> geographic CRS: WGS 84
#> # A tibble: 49 x 21
#>    date       state  fips   cases deaths
#>    <date>     <chr>  <chr>  <dbl>  <dbl>
#>  1 2021-03-17 Alaba… 01    5.09e5  10337
#>  2 2021-03-17 Arizo… 04    8.34e5  16574
#>  3 2021-03-17 Arkan… 05    3.27e5   5493
#>  4 2021-03-17 Calif… 06    3.63e6  56719
#>  5 2021-03-17 Color… 08    4.47e5   6129
#>  6 2021-03-17 Conne… 09    2.94e5   7799
#>  7 2021-03-17 Delaw… 10    9.08e4   1514
#>  8 2021-03-17 Distr… 11    4.27e4   1042
#>  9 2021-03-17 Flori… 12    1.98e6  32448
#> 10 2021-03-17 Georg… 13    1.01e6  17735
#> # … with 39 more rows, and 16 more
#> #   variables: confirmed_cases <dbl>,
#> #   confirmed_deaths <dbl>,
#> #   probable_cases <dbl>,
#> #   probable_deaths <dbl>,
#> #   statefp <chr>, statens <chr>,
#> #   affgeoid <chr>, geoid <chr>,
#> #   stusps <chr>, lsad <chr>,
#> #   aland <dbl>, awater <dbl>,
…
